{
  "files": {
    "main.js": "/static/js/main.d333972c.js",
    "index.html": "/index.html",
    "main.d333972c.js.map": "/static/js/main.d333972c.js.map"
  },
  "entrypoints": [
    "static/js/main.d333972c.js"
  ]
}